<?xml version="1.0" encoding="utf-8"?>
<!-- Generator: Adobe Illustrator 19.0.0, SVG Export Plug-In . SVG Version: 6.00 Build 0)  -->
<svg version="1.1" baseProfile="tiny" id="Слой_1"
	 xmlns="http://www.w3.org/2000/svg" xmlns:xlink="http://www.w3.org/1999/xlink" x="0px" y="0px" viewBox="0 0 191 182.2"
	 xml:space="preserve">
<g>
	<path fill="#66BBFD" d="M82.7,99.4H44.3V84c0-39.7,18.5-39.7,28.5-39.7V0h0C54.5,0,39,5.1,26.7,15.1C9,29.6,0,52.8,0,84v15.4h0
		v82.7h82.7V99.4z"/>
	<path fill="#66BBFD" d="M191,99.4h-38.4V84c0-39.7,18.5-39.7,28.5-39.7V0h0c-18.3,0-33.9,5.1-46.1,15.1
		c-17.7,14.5-26.7,37.7-26.7,68.9v15.4v82.7H191V99.4z"/>
</g>
</svg>
