<svg xmlns="http://www.w3.org/2000/svg" xmlns:xlink="http://www.w3.org/1999/xlink" preserveAspectRatio="xMidYMid" width="24" height="24" viewBox="0 0 24 24">
  <defs>
    <style>
      .cls-1 {
        fill: #000;
        fill-rule: evenodd;
      }
    </style>
  </defs>
  <g id="artboard-1">
    <path d="M22.510,20.997 L1.503,20.997 C0.674,20.997 0.002,20.327 0.002,19.498 L0.002,6.747 L12.006,16.497 L24.010,6.724 L24.010,19.498 C24.010,20.327 23.339,20.997 22.510,20.997 ZM0.002,4.497 C0.002,3.669 0.674,2.997 1.503,2.997 L22.510,2.997 C23.339,2.997 24.010,3.669 24.010,4.497 L12.006,14.247 L0.002,4.497 Z" class="cls-1"/>
  </g>
</svg>
