<svg xmlns="http://www.w3.org/2000/svg" xmlns:xlink="http://www.w3.org/1999/xlink" preserveAspectRatio="xMidYMid" width="24" height="24" viewBox="0 0 24 24">
  <defs>
    <style>
      .cls-1 {
        fill: #fff;
        fill-rule: evenodd;
      }
    </style>
  </defs>
  <path d="M15.273,21.443 L23.429,13.350 C24.175,12.603 24.175,11.395 23.429,10.651 L15.273,2.555 C14.519,1.809 13.300,1.810 12.546,2.555 C11.800,3.301 11.800,4.508 12.546,5.254 L17.320,9.988 L2.011,9.988 C0.906,9.988 0.011,10.885 0.011,11.988 C0.011,13.094 0.906,13.988 2.011,13.988 L17.347,13.988 L12.546,18.746 C11.800,19.492 11.800,20.699 12.546,21.445 C13.300,22.191 14.519,22.190 15.273,21.443 Z" class="cls-1"/>
</svg>
